face_01.jpg
face_02.jpg
face_03.jpg
face_04.jpg
face_05.jpg
face_06.jpg
face_07.jpg
face_08.jpg
face_09.jpg
face_10.jpg
face_11.jpg
face_12.jpg
face_13.jpg
face_14.jpg
face_15.jpg
face_16.jpg
face_17.jpg
face_18.jpg
face_19.jpg
face_20.jpg
face_21.jpg
face_22.jpg
face_23.jpg
face_24.jpg
face_25.jpg
face_26.jpg
face_27.jpg
face_28.jpg
face_29.jpg
face_30.jpg
face_31.jpg
face_32.jpg
face_33.jpg
face_34.jpg
face_35.jpg
face_36.jpg
face_37.jpg
face_38.jpg
face_39.jpg
face_40.jpg
face_41.jpg
face_42.jpg
face_43.jpg
face_44.jpg
face_45.jpg
face_46.jpg
face_47.jpg
face_48.jpg
face_49.jpg
face_50.jpg
face_51.jpg
face_52.jpg
face_53.jpg
face_54.jpg
face_55.jpg
face_56.jpg
face_57.jpg
face_58.jpg
face_59.jpg
face_60.jpg
